{
  "version": "1.0",
  "defaultProvider": "cdnjs",
  "libraries": [
    {
      "provider": "unpkg",
      "library": "@microsoft/signalr@3.1.8",
      "destination": "wwwroot/lib/@microsoft/signalr/",
      "files": [
        "dist/browser/signalr.js",
        "dist/browser/signalr.js.map",
        "dist/browser/signalr.min.js",
        "dist/browser/signalr.min.js.map"
      ]
    }
  ]
}